1.wav,"We gotta pass this guy to get the Lucky Dog."
2.wav,"We gotta pass this car to get the Lucky Dog."
3.wav,"We gotta pass this car!"
4.wav,"Okay, we gotta have this one!"
5.wav,"We gotta have this one to get the Lucky Dog!"
6.wav,"We gotta pass this car to get the Lucky Dog!"