2.wav,"Caution's out."
3.wav,"Alright, the caution's out."
5.wav,"Caution's out!"
8_male.wav,"Yellow's out, man."
10.wav,"Yellow's out!"
11.wav,"Caution! Caution! Caution!"
14.wav,"Caution's out!"
16.wav,"Yellow's out!"
17.wav,"Yellow flag!"
18.wav,"Caution flag's out."
19.wav,"That's a caution!"
20.wav,"That's a caution!"
21.wav,"That's a caution; back 'er down."
22.wav,"Caution's out; back it down!"
24.wav,"Yellow's out."
26.wav,"Yellow's out; back it down!"